APIs & Web Scraping for Medical & Public Health Research
…
#Sys.getenv("CENSUS_API_KEY")
census_api_key(Sys.getenv("CENSUS_API_KEY"), install = TRUE, overwrite = TRUE)

[1] "0d957575e1d2da7f12f8afad9808c2c0dcb93055"

Test your key and make a simple request (R example)

# This is a simple test to see if your key is working and to get a basic population estimate for all states in 2023. You should see a table with state names, population estimates, and margins of error.

# packages used: tidycensus

get_acs(geography = "state", variables = "B01001_001", year = 2023)

# A tibble: 52 × 5
   GEOID NAME                 variable   estimate   moe
   <chr> <chr>                <chr>         <dbl> <dbl>
 1 01    Alabama              B01001_001  5054253    NA
 2 02    Alaska               B01001_001   733971    NA
 3 04    Arizona              B01001_001  7268175    NA
 4 05    Arkansas             B01001_001  3032651    NA
 5 06    California           B01001_001 39242785    NA
 6 08    Colorado             B01001_001  5810774    NA
 7 09    Connecticut          B01001_001  3598348    NA
 8 10    Delaware             B01001_001  1005872    NA
 9 11    District of Columbia B01001_001   672079    NA
10 12    Florida              B01001_001 21928881    NA
# ℹ 42 more rows
…
